SubID,Mask,Distractor,Features,Accuracies
19791024eetm,No,No,Envelope,0.54729945681463
19791024eetm,No,No,f0,0.0605358988288336
19791024eetm,No,No,f1,0.311825372347206
19791024eetm,No,No,f2,0.222218219531748
19791024eetm,No,No,f3,0.317158785536268
19791024eetm,No,No,f2_3,0.292487744220583
19791024eetm,No,No,Phoneme Onset,0.175633864028617
19791024eetm,No,No,Word Onset,0.111080431046938
19800616MRGU,No,No,Envelope,0.49351873647149
19800616MRGU,No,No,f0,0.0704464356284117
19800616MRGU,No,No,f1,0.292089343529207
19800616MRGU,No,No,f2,0.208025967818828
19800616MRGU,No,No,f3,0.274267113447908
19800616MRGU,No,No,f2_3,0.262690225430717
19800616MRGU,No,No,Phoneme Onset,0.16109681182037
19800616MRGU,No,No,Word Onset,0.0894429610469345
19870319WLGL,No,No,Envelope,0.268624549530346
19870319WLGL,No,No,f0,0.0338800896415764
19870319WLGL,No,No,f1,0.201767646639351
19870319WLGL,No,No,f2,0.124813566337228
19870319WLGL,No,No,f3,0.188509496831573
19870319WLGL,No,No,f2_3,0.170874067208466
19870319WLGL,No,No,Phoneme Onset,0.119000485933154
19870319WLGL,No,No,Word Onset,0.0808194105049913
19891222GBHL,No,No,Envelope,0.313649277125692
19891222GBHL,No,No,f0,0.0384095514099436
19891222GBHL,No,No,f1,0.185803648746447
19891222GBHL,No,No,f2,0.113052311501784
19891222GBHL,No,No,f3,0.175338152846739
19891222GBHL,No,No,f2_3,0.144700313597704
19891222GBHL,No,No,Phoneme Onset,0.133309440048464
19891222GBHL,No,No,Word Onset,0.0758252504502205
19900713MRMR,No,No,Envelope,0.395203449326164
19900713MRMR,No,No,f0,0.10635582018124
19900713MRMR,No,No,f1,0.246045719128126
19900713MRMR,No,No,f2,0.16005454077343
19900713MRMR,No,No,f3,0.260679039285803
19900713MRMR,No,No,f2_3,0.231253456130501
19900713MRMR,No,No,Phoneme Onset,0.169723734616576
19900713MRMR,No,No,Word Onset,0.087354544395874
19910612CRKE,No,No,Envelope,0.332841895182901
19910612CRKE,No,No,f0,0.0697207480427761
19910612CRKE,No,No,f1,0.212932973645308
19910612CRKE,No,No,f2,0.110899338928186
19910612CRKE,No,No,f3,0.179587921366997
19910612CRKE,No,No,f2_3,0.166156437005344
19910612CRKE,No,No,Phoneme Onset,0.125914625088113
19910612CRKE,No,No,Word Onset,0.0718210496510168
19910703EIGL,No,No,Envelope,0.406344435418238
19910703EIGL,No,No,f0,0.0613008016625915
19910703EIGL,No,No,f1,0.255542009411803
19910703EIGL,No,No,f2,0.166552606918227
19910703EIGL,No,No,f3,0.252407858552093
19910703EIGL,No,No,f2_3,0.223335457169146
19910703EIGL,No,No,Phoneme Onset,0.173468729568216
19910703EIGL,No,No,Word Onset,0.0947346019503187
19910823SSLD,No,No,Envelope,0.484150975765249
19910823SSLD,No,No,f0,0.162283654724076
19910823SSLD,No,No,f1,0.282014315156088
19910823SSLD,No,No,f2,0.204400132761029
19910823SSLD,No,No,f3,0.326978856706718
19910823SSLD,No,No,f2_3,0.28818199727472
19910823SSLD,No,No,Phoneme Onset,0.191822585685578
19910823SSLD,No,No,Word Onset,0.102538179379608
19920121MRDL,No,No,Envelope,0.240822145998984
19920121MRDL,No,No,f0,0.0575221800431903
19920121MRDL,No,No,f1,0.181146521144705
19920121MRDL,No,No,f2,0.10349683295713
19920121MRDL,No,No,f3,0.142335644379858
19920121MRDL,No,No,f2_3,0.139124190947202
19920121MRDL,No,No,Phoneme Onset,0.0892012737408059
19920121MRDL,No,No,Word Onset,0.0655754448443643
19921204RTSE,No,No,Envelope,0.467022283973217
19921204RTSE,No,No,f0,0.123570784616692
19921204RTSE,No,No,f1,0.245062425780552
19921204RTSE,No,No,f2,0.182041771478397
19921204RTSE,No,No,f3,0.266587138154664
19921204RTSE,No,No,f2_3,0.239982654939312
19921204RTSE,No,No,Phoneme Onset,0.170660433616657
19921204RTSE,No,No,Word Onset,0.092567883696787
19921216ANKO,No,No,Envelope,0.273633467960407
19921216ANKO,No,No,f0,0.0654066368396048
19921216ANKO,No,No,f1,0.150593101302369
19921216ANKO,No,No,f2,0.106090813165666
19921216ANKO,No,No,f3,0.168838873444361
19921216ANKO,No,No,f2_3,0.14719872784787
19921216ANKO,No,No,Phoneme Onset,0.122456853875732
19921216ANKO,No,No,Word Onset,0.0643801196812939
19950113urwr,No,No,Envelope,0.441525068812497
19950113urwr,No,No,f0,0.0488366459492339
19950113urwr,No,No,f1,0.28876247114963
19950113urwr,No,No,f2,0.183152868692549
19950113urwr,No,No,f3,0.285634583214461
19950113urwr,No,No,f2_3,0.254671521490643
19950113urwr,No,No,Phoneme Onset,0.178684440204157
19950113urwr,No,No,Word Onset,0.0964077073680996
19950201ANWL,No,No,Envelope,0.505027642199344
19950201ANWL,No,No,f0,0.135088371979585
19950201ANWL,No,No,f1,0.252839149550439
19950201ANWL,No,No,f2,0.132024536786834
19950201ANWL,No,No,f3,0.283922056653558
19950201ANWL,No,No,f2_3,0.220433879386651
19950201ANWL,No,No,Phoneme Onset,0.204820442064344
19950201ANWL,No,No,Word Onset,0.108532480346188
19950513CRHN,No,No,Envelope,0.390111477799884
19950513CRHN,No,No,f0,0.0833185903809836
19950513CRHN,No,No,f1,0.236077451499516
19950513CRHN,No,No,f2,0.165442574420663
19950513CRHN,No,No,f3,0.250778383526453
19950513CRHN,No,No,f2_3,0.22342448537139
19950513CRHN,No,No,Phoneme Onset,0.16420434352415
19950513CRHN,No,No,Word Onset,0.0914913170321266
19950913GBWL,No,No,Envelope,0.424039296837535
19950913GBWL,No,No,f0,0.143866750320088
19950913GBWL,No,No,f1,0.250023788210287
19950913GBWL,No,No,f2,0.157020689279806
19950913GBWL,No,No,f3,0.272919991697291
19950913GBWL,No,No,f2_3,0.237469867724493
19950913GBWL,No,No,Phoneme Onset,0.182785259728034
19950913GBWL,No,No,Word Onset,0.085095182562819
19960108ADGL,No,No,Envelope,0.345765036464251
19960108ADGL,No,No,f0,0.0568091940632747
19960108ADGL,No,No,f1,0.169239833467233
19960108ADGL,No,No,f2,0.171283908201331
19960108ADGL,No,No,f3,0.200203501272756
19960108ADGL,No,No,f2_3,0.204724113076061
19960108ADGL,No,No,Phoneme Onset,0.123194363542448
19960108ADGL,No,No,Word Onset,0.0748965689235125
19960304URBC,No,No,Envelope,0.427609561784227
19960304URBC,No,No,f0,0.0769047118985806
19960304URBC,No,No,f1,0.257712477182717
19960304URBC,No,No,f2,0.211176944138488
19960304URBC,No,No,f3,0.281805004793577
19960304URBC,No,No,f2_3,0.268868206172293
19960304URBC,No,No,Phoneme Onset,0.158501722260453
19960304URBC,No,No,Word Onset,0.115923619476168
19960423aese,No,No,Envelope,0.472248688376807
19960423aese,No,No,f0,0.060652147828733
19960423aese,No,No,f1,0.316953475419006
19960423aese,No,No,f2,0.220525263242693
19960423aese,No,No,f3,0.333715273233736
19960423aese,No,No,f2_3,0.301954724746661
19960423aese,No,No,Phoneme Onset,0.187562236443692
19960423aese,No,No,Word Onset,0.0970833209991039
19960626DEOS,No,No,Envelope,0.370168477340696
19960626DEOS,No,No,f0,0.075148482732181
19960626DEOS,No,No,f1,0.255998271839809
19960626DEOS,No,No,f2,0.16597112436661
19960626DEOS,No,No,f3,0.233126338262423
19960626DEOS,No,No,f2_3,0.214723824629426
19960626DEOS,No,No,Phoneme Onset,0.15647630505794
19960626DEOS,No,No,Word Onset,0.0968298554947901
19970109DABA,No,No,Envelope,0.337380327815979
19970109DABA,No,No,f0,0.0694669130071878
19970109DABA,No,No,f1,0.199645327212391
19970109DABA,No,No,f2,0.125212381076908
19970109DABA,No,No,f3,0.195741042049674
19970109DABA,No,No,f2_3,0.172808575682722
19970109DABA,No,No,Phoneme Onset,0.125067940189294
19970109DABA,No,No,Word Onset,0.0893567180148807
19970203urmr,No,No,Envelope,0.332640615129185
19970203urmr,No,No,f0,0.0545753820208999
19970203urmr,No,No,f1,0.196324279817874
19970203urmr,No,No,f2,0.135553309072344
19970203urmr,No,No,f3,0.217275098238527
19970203urmr,No,No,f2_3,0.200092763990042
19970203urmr,No,No,Phoneme Onset,0.135505814568168
19970203urmr,No,No,Word Onset,0.0650363298678298
19970503SBKN,No,No,Envelope,0.433982608544223
19970503SBKN,No,No,f0,0.136917815096004
19970503SBKN,No,No,f1,0.203308556869946
19970503SBKN,No,No,f2,0.156055204579225
19970503SBKN,No,No,f3,0.278256358326973
19970503SBKN,No,No,f2_3,0.240127490206882
19970503SBKN,No,No,Phoneme Onset,0.202774494925033
19970503SBKN,No,No,Word Onset,0.11180307314338
19970725CRHR,No,No,Envelope,0.415239229926487
19970725CRHR,No,No,f0,0.15483053637228
19970725CRHR,No,No,f1,0.206244994345605
19970725CRHR,No,No,f2,0.199907005308152
19970725CRHR,No,No,f3,0.265794080197917
19970725CRHR,No,No,f2_3,0.249644597382967
19970725CRHR,No,No,Phoneme Onset,0.17851624412963
19970725CRHR,No,No,Word Onset,0.0703897588132784
19970915ADMR,No,No,Envelope,0.409852400267684
19970915ADMR,No,No,f0,0.0545700667543173
19970915ADMR,No,No,f1,0.222261788093159
19970915ADMR,No,No,f2,0.125351199375549
19970915ADMR,No,No,f3,0.238735585519516
19970915ADMR,No,No,f2_3,0.198782476937654
19970915ADMR,No,No,Phoneme Onset,0.163871669685689
19970915ADMR,No,No,Word Onset,0.102897009089147
19971028MRHS,No,No,Envelope,0.372055690769121
19971028MRHS,No,No,f0,0.111350224021779
19971028MRHS,No,No,f1,0.194434305888307
19971028MRHS,No,No,f2,0.0758849968880416
19971028MRHS,No,No,f3,0.176930719171383
19971028MRHS,No,No,f2_3,0.135155976604071
19971028MRHS,No,No,Phoneme Onset,0.169189326597787
19971028MRHS,No,No,Word Onset,0.0941507860848357
19980329RSMT,No,No,Envelope,0.322105730695929
19980329RSMT,No,No,f0,0.0621204788531672
19980329RSMT,No,No,f1,0.178269272472978
19980329RSMT,No,No,f2,0.167333943491097
19980329RSMT,No,No,f3,0.205741830964865
19980329RSMT,No,No,f2_3,0.207585837915585
19980329RSMT,No,No,Phoneme Onset,0.126848139915009
19980329RSMT,No,No,Word Onset,0.0842623401618362
19980729CRSH,No,No,Envelope,0.415586889505832
19980729CRSH,No,No,f0,0.0626098035478209
19980729CRSH,No,No,f1,0.244629903615922
19980729CRSH,No,No,f2,0.155758271192227
19980729CRSH,No,No,f3,0.238375268430538
19980729CRSH,No,No,f2_3,0.217130983733295
19980729CRSH,No,No,Phoneme Onset,0.164132881108799
19980729CRSH,No,No,Word Onset,0.106774107558261
19980817AEKA,No,No,Envelope,0.442287380098798
19980817AEKA,No,No,f0,0.128158486757636
19980817AEKA,No,No,f1,0.243324214008966
19980817AEKA,No,No,f2,0.171431867644921
19980817AEKA,No,No,f3,0.285648790764742
19980817AEKA,No,No,f2_3,0.240107647503982
19980817AEKA,No,No,Phoneme Onset,0.191430668178278
19980817AEKA,No,No,Word Onset,0.0939176447568362
19981117GBSG,No,No,Envelope,0.274527473853082
19981117GBSG,No,No,f0,0.0392818265434311
19981117GBSG,No,No,f1,0.124887733876275
19981117GBSG,No,No,f2,0.0970611152077068
19981117GBSG,No,No,f3,0.133049321668329
19981117GBSG,No,No,f2_3,0.119717016555188
19981117GBSG,No,No,Phoneme Onset,0.117451177679757
19981117GBSG,No,No,Word Onset,0.0719108370634013
