Time,Pitch
0,50
0.0103092783505155,50
0.0206185567010309,50
0.0309278350515464,72.289156626506
0.0412371134020619,72.289156626506
0.0515463917525773,53.0386740331492
0.0618556701030928,400
0.0721649484536082,400
0.0824742268041237,156.862745098039
0.0927835051546392,160
0.103092783505155,160
0.11340206185567,111.111111111111
0.123711340206186,110.854503464203
0.134020618556701,110.344827586207
0.144329896907216,110.854503464203
0.154639175257732,110.344827586207
0.164948453608247,106.904231625835
0.175257731958763,97.9591836734694
0.185567010309278,87.5912408759124
0.195876288659794,358.208955223881
0.206185567010309,355.555555555556
0.216494845360825,384
0.22680412371134,213.333333333333
0.237113402061856,235.294117647059
0.247422680412371,66.2983425414365
0.257731958762887,109.839816933638
0.268041237113402,91.7782026768642
0.278350515463918,91.7782026768642
0.288659793814433,91.9540229885057
0.298969072164948,84.2105263157895
0.309278350515464,72.9483282674772
0.319587628865979,117.359413202934
0.329896907216495,107.62331838565
0.34020618556701,113.475177304965
0.350515463917526,115.66265060241
0.360824742268041,116.222760290557
0.371134020618557,116.222760290557
0.381443298969072,116.504854368932
0.391752577319588,117.073170731707
0.402061855670103,116.788321167883
0.412371134020619,111.888111888112
0.422680412371134,111.888111888112
0.43298969072165,57.9010856453558
0.443298969072165,82.0512820512821
0.45360824742268,384
0.463917525773196,166.666666666667
0.474226804123711,161.073825503356
0.484536082474227,157.377049180328
0.494845360824742,156.351791530945
0.505154639175258,155.339805825243
0.515463917525773,154.838709677419
0.525773195876289,153.846153846154
0.536082474226804,153.354632587859
0.54639175257732,152.866242038217
0.556701030927835,152.866242038217
0.56701030927835,152.380952380952
0.577319587628866,151.419558359621
0.587628865979381,148.606811145511
0.597938144329897,145.454545454545
0.608247422680412,141.176470588235
0.618556701030928,135.977337110482
0.628865979381443,129.72972972973
0.639175257731959,125
0.649484536082474,119.402985074627
0.65979381443299,116.222760290557
0.670103092783505,112.676056338028
0.680412371134021,109.839816933638
0.690721649484536,103.225806451613
0.701030927835051,90.5660377358491
0.711340206185567,90.5660377358491
0.721649484536082,90.5660377358491
0.731958762886598,90.5660377358491
0.742268041237113,90.5660377358491
0.752577319587629,255.31914893617
0.762886597938144,317.880794701987
0.77319587628866,331.034482758621
0.783505154639175,324.324324324324
0.793814432989691,188.976377952756
0.804123711340206,147.692307692308
0.814432989690722,142.011834319527
0.824742268041237,98.9690721649485
0.835051546391753,101.910828025478
0.845360824742268,102.564102564103
0.855670103092783,103.004291845494
0.865979381443299,103.448275862069
0.876288659793814,103.671706263499
0.88659793814433,104.12147505423
0.896907216494845,104.575163398693
0.907216494845361,104.803493449782
0.917525773195876,105.032822757112
0.927835051546392,105.263157894737
0.938144329896907,104.575163398693
0.948453608247423,99.3788819875776
0.958762886597938,195.918367346939
0.969072164948454,100.62893081761
0.979381443298969,101.910828025478
0.989690721649485,102.127659574468
1,103.004291845494
1.01030927835052,103.448275862069
1.02061855670103,103.896103896104
1.03092783505155,104.803493449782
1.04123711340206,105.494505494505
1.05154639175258,105.960264900662
1.06185567010309,106.430155210643
1.07216494845361,106.904231625835
1.08247422680412,106.194690265487
1.09278350515464,217.194570135747
1.10309278350515,211.453744493392
1.11340206185567,211.453744493392
1.12371134020619,119.402985074627
1.1340206185567,218.181818181818
1.14432989690722,88.3977900552486
1.15463917525773,88.3977900552486
1.16494845360825,127.320954907162
1.17525773195876,157.894736842105
1.18556701030928,303.79746835443
1.19587628865979,121.827411167513
1.20618556701031,181.132075471698
1.21649484536082,98.7654320987654
1.22680412371134,54.176072234763
1.23711340206186,93.5672514619883
1.24742268041237,95.2380952380952
1.25773195876289,196.72131147541
1.2680412371134,98.9690721649485
1.27835051546392,99.3788819875776
1.28865979381443,100.418410041841
1.29896907216495,99.7920997920998
1.30927835051546,200.836820083682
1.31958762886598,160
1.32989690721649,95.2380952380952
1.34020618556701,204.255319148936
1.35051546391753,400
1.36082474226804,400
1.37113402061856,400
1.38144329896907,400
1.39175257731959,400
1.4020618556701,204.255319148936
1.41237113402062,226.415094339623
1.42268041237113,215.2466367713
1.43298969072165,103.004291845494
1.44329896907216,100
1.45360824742268,100.418410041841
1.4639175257732,101.26582278481
1.47422680412371,101.26582278481
1.48453608247423,100.840336134454
1.49484536082474,102.345415778252
1.50515463917526,103.671706263499
1.51546391752577,104.803493449782
1.52577319587629,105.960264900662
1.5360824742268,106.430155210643
1.54639175257732,107.142857142857
1.55670103092784,110.344827586207
1.56701030927835,112.941176470588
1.57731958762887,115.66265060241
1.58762886597938,120.300751879699
1.5979381443299,121.212121212121
1.60824742268041,121.518987341772
1.61855670103093,120.603015075377
1.62886597938144,123.711340206186
1.63917525773196,105.960264900662
1.64948453608247,105.960264900662
1.65979381443299,155.339805825243
1.67010309278351,229.665071770335
1.68041237113402,197.530864197531
1.69072164948454,58.252427184466
1.70103092783505,233.009708737864
1.71134020618557,96.1923847695391
1.72164948453608,114.285714285714
1.7319587628866,91.6030534351145
1.74226804123711,91.254752851711
1.75257731958763,91.0815939278937
1.76288659793814,90.9090909090909
1.77319587628866,86.9565217391304
1.78350515463918,86.9565217391304
1.79381443298969,86.7992766726944
1.80412371134021,82.7586206896552
1.81443298969072,75.7097791798107
1.82474226804124,76.3116057233704
1.83505154639175,75.8293838862559
1.84536082474227,137.931034482759
1.85567010309278,138.328530259366
1.8659793814433,131.506849315069
1.87628865979381,121.212121212121
1.88659793814433,226.415094339623
1.89690721649485,226.415094339623
1.90721649484536,226.415094339623
1.91752577319588,226.415094339623
1.92783505154639,380.952380952381
1.93814432989691,112.941176470588
1.94845360824742,91.4285714285714
1.95876288659794,89.3854748603352
1.96907216494845,88.8888888888889
1.97938144329897,88.2352941176471
1.98969072164948,81.0810810810811
2,80.9443507588533
