Time,Input,Reconstruction
0,-0.580063768215686,-0.0210136473514608
0.0200153964588145,-0.794956969533308,-0.0100222937687443
0.0400307929176289,-0.138207330194349,0.00712306302401678
0.0600461893764434,-0.679090857665904,0.050440021759917
0.0800615858352579,-0.719521928812338,0.0700372758499494
0.100076982294072,-0.844622366927138,0.280746806520404
0.120092378752887,-0.345698678204913,0.288199807581992
0.140107775211701,0.871316666893687,0.360509731927626
0.160123171670516,0.904415008207107,0.551235029968708
0.18013856812933,0.751421262707323,0.315444051011982
0.200153964588145,0.687853415284481,0.248232100800014
0.220169361046959,0.0261487771529862,-0.0716972842410316
0.240184757505774,-0.455951035855621,-0.429213394715514
0.260200153964588,-0.408690777452708,-0.496611548542546
0.280215550423403,-0.301594009015801,-0.511618286899642
0.300230946882217,-0.579916082424873,-0.4575100821463
0.320246343341032,-0.772179424148157,-0.566382634977532
0.340261739799846,-0.806098492940935,-0.465808576634841
0.360277136258661,-0.335844158091693,-0.330983437925521
0.380292532717475,-0.459852484870912,-0.197694989594246
0.400307929176289,1.20574672920251,-0.238518140734063
0.420323325635104,1.11786008170376,-0.483349550850741
0.440338722093918,-0.360007276976522,-0.600203385951097
0.460354118552733,-0.296809116566715,-0.438972300074002
0.480369515011547,0.226788901692628,-0.244942118917303
0.500384911470362,1.4739925309169,-0.0654730330945675
0.520400307929176,2.25599755279104,0.34195661585431
0.540415704387991,2.60389473644893,0.315693787136401
0.560431100846805,2.52708211590533,0.335265008619242
0.58044649730562,1.47491275391672,0.0928845836241789
0.600461893764434,-0.245260413796261,-0.185815878777112
0.620477290223249,-0.667498196046623,-0.470390842900795
0.640492686682063,-0.739294080128664,-0.544211044170268
0.660508083140878,-0.508766526365518,-0.395768622259518
0.680523479599692,-0.716764262611962,-0.205422777383524
0.700538876058507,0.307859482903842,0.118334650318494
0.720554272517321,0.926776789045953,0.439458475213346
0.740569668976136,1.3828995121313,0.614473761662995
0.76058506543495,1.76028475483703,0.635440159854942
0.780600461893764,1.16681853682464,0.418285063172359
0.800615858352579,1.15397903245231,0.0802649998791069
0.820631254811393,0.634227539797615,-0.101248793635422
0.840646651270208,-0.512227645434686,-0.214252800509827
0.860662047729022,-0.69902793865277,-0.175086570282469
0.880677444187837,-0.734378770628103,0.000259535431039987
0.900692840646651,-0.778285684391225,0.108885389885682
0.920708237105466,-0.66657559465432,0.572398543782406
0.94072363356428,-0.610810956636996,1.06283978317528
0.960739030023095,0.78972687338774,1.48311594593996
0.980754426481909,0.838275368407675,1.46718981747137
1.00076982294072,-0.31507928571192,0.99910745556557
1.02078521939954,-0.721490328499088,0.603365733984284
1.04080061585835,-0.725168939476755,0.275183086170467
1.06081601231717,-0.802701166955301,-0.0609708050993636
1.08083140877598,-0.731758919230041,-0.343390336838392
1.1008468052348,-0.85956714688708,-0.310655985187191
1.12086220169361,-0.161389826865654,-0.0123657020475995
1.14087759815242,0.591728486046269,0.156617422317976
1.16089299461124,0.132314393236152,0.306373964066672
1.18090839107005,-0.216900318731961,0.409008916976614
1.20092378752887,-0.152399725851529,0.353536482959072
1.22093918398768,0.269870319857673,0.0910831888210192
1.2409545804465,-0.249113093561148,-0.183581244553766
1.26096997690531,-0.673797632777628,-0.484438703465251
1.28098537336413,-0.809707059533865,-0.562530325892453
1.30100076982294,-0.530452422274332,-0.461543767377973
1.32101616628176,-0.183160386319366,-0.254427398243703
1.34103156274057,0.644585821144017,-0.0960129280894394
1.36104695919938,0.779279615884997,0.160833570843345
1.3810623556582,0.72515032561687,0.296274641648069
1.40107775211701,0.326099847567407,0.305433968914616
1.42109314857583,-0.317425613350793,0.210894304232741
1.44110854503464,-0.561853722407528,0.143796508861807
1.46112394149346,-0.755950230495912,0.263093398895297
1.48113933795227,0.561778886402059,0.484051037699844
1.50115473441109,1.62629671918671,0.529636353146949
1.5211701308699,0.933225510672217,0.560121012025918
1.54118552732871,0.10318149252359,0.481521680186261
1.56120092378753,-0.414622350141706,0.0891019248557553
1.58121632024634,-0.681889458268183,-0.290993415486704
1.60123171670516,-0.757928730357405,-0.385595930978704
1.62124711316397,-0.76565704242787,-0.465700495815159
1.64126250962279,-0.793322750542861,-0.172589980634248
1.6612779060816,-0.790854938522035,0.211691172191558
1.68129330254042,-0.796827453604057,0.418773965702799
1.70130869899923,-0.792770720895963,0.612659917208063
1.72132409545804,-0.790377371055574,0.515425518384507
1.74133949191686,-0.791761026864462,0.168685271151528
1.76135488837567,-0.795429086183809,-0.119003653124157
1.78137028483449,-0.789392693173768,-0.199546682476884
1.8013856812933,-0.791670669538218,-0.266489674291472
1.82140107775212,-0.786589854836997,-0.371784047556243
1.84141647421093,-0.793040562199072,-0.481753203135883
1.86143187066975,-0.77678557659108,-0.521072135292428
1.88144726712856,-0.765192140486361,-0.530065060727775
1.90146266358737,-0.77017026636016,-0.411878588928379
1.92147806004619,-0.770925583494639,-0.307154925741024
1.941493456505,-0.781018182091301,-0.444854349767656
1.96150885296382,-0.785583948498264,-0.603936790427629
1.98152424942263,-0.788118542658906,-0.875045642955802
2.00153964588145,-0.79098778591794,-1.15146999675937
2.02155504234026,-0.778216491609767,-1.14463022251419
2.04157043879908,-0.777854298920737,-0.83739840409924
2.06158583525789,-0.781017579958171,-0.796538611939824
2.0816012317167,-0.792697336549871,-0.662987294223423
2.10161662817552,-0.792194051819219,-0.618781768050523
2.12163202463433,-0.81079915849042,-0.530970220557702
2.14164742109315,-0.786034174396684,-0.590593178263559
2.16166281755196,-0.824696669342115,-0.477696447458827
2.18167821401078,-0.76518846990275,-0.177891272534397
2.20169361046959,-0.886132429584415,0.184268501602277
2.22170900692841,-0.321767214163962,0.501899266663605
2.24172440338722,1.37887931119131,0.811661123567543
2.26173979984604,1.26641184724167,0.747956686081428
2.28175519630485,1.3332018769775,0.452875616065576
2.30177059276366,1.44331442308422,-0.0729691778675481
2.32178598922248,1.53026482698206,-0.364331274690634
2.34180138568129,1.57739960706514,-0.434091572727799
2.36181678214011,1.2147823422241,-0.523530993670478
2.38183217859892,1.82071333983663,-0.434296208500576
2.40184757505774,3.64782408102756,-0.196484767480586
2.42186297151655,3.31148411907912,0.193719293507454
2.44187836797537,1.40409951248996,0.323546358230928
2.46189376443418,-0.666779311214413,0.138288247390671
2.48190916089299,-0.639960561111048,0.340848102711579
2.50192455735181,1.36198861707997,0.223377954322004
2.52193995381062,1.33668163850409,0.048062982674797
2.54195535026944,0.150329745883817,0.0556741646167552
2.56197074672825,0.0927230814472488,0.0124621907925883
2.58198614318707,-0.0696200682796399,0.109249123525281
2.60200153964588,-0.00719412539781616,0.368434227679493
2.6220169361047,0.206264933343069,0.194472325445201
2.64203233256351,0.424465400189509,0.184445382280038
2.66204772902233,0.596394751421433,0.122402183361133
2.68206312548114,0.327917084052941,0.0402212087302407
2.70207852193995,0.507415690652206,-0.028696195143295
2.72209391839877,-0.267069011535751,-0.228590336370665
2.74210931485758,-0.737524360847545,-0.51929606437373
2.7621247113164,-1.23664637123927,-0.604540002481211
2.78214010777521,-1.33262921147034,-0.223345307134686
2.80215550423403,-1.11711569508338,0.438101708422141
2.82217090069284,0.799395355106991,0.823893675667793
2.84218629715166,0.443311259973826,0.770003910000486
2.86220169361047,-0.787670113339786,0.530953491434573
2.88221709006928,-1.07679489475625,-0.0937368228915117
2.9022324865281,-1.07140317049738,-0.574835384584061
2.92224788298691,-1.25777443698749,-1.00891531091673
2.94226327944573,-1.34107493458298,-1.12848344626608
2.96227867590454,-1.108447335112,-0.859255371006293
2.98229407236336,-0.377630318584314,-0.162063153375623
3.00230946882217,0.260595252898954,0.337949584863587
3.02232486528099,-0.147473272442665,0.696317130238635
3.0423402617398,-0.11489376763528,0.750184407081544
3.06235565819861,-0.447192842268711,0.47883906621471
3.08237105465743,-0.559441653159496,0.208473506836094
3.10238645111624,-1.01814277723411,-0.0592886438854705
3.12240184757506,-1.29922606144931,-0.251929375831075
3.14241724403387,-0.605881466036133,-0.44927305213258
3.16243264049269,0.30642585455305,-0.703609658984872
3.1824480369515,-0.137179860369293,-0.79416354053567
3.20246343341032,-0.982332730019752,-0.859565964347706
3.22247882986913,-1.3363720518433,-0.88157705702674
3.24249422632794,-1.22097789966178,-0.559140449529037
3.26250962278676,-0.756160353262228,-0.259105747368704
3.28252501924557,1.24160077747495,0.0737120908619693
3.30254041570439,1.94964322410648,0.168076118888908
3.3225558121632,1.96676852709045,-0.0585664058032236
3.34257120862202,2.27235045879142,-0.132060519326277
3.36258660508083,1.9826591881399,-0.158089344806848
3.38260200153965,1.73421734715781,-0.386998466474351
3.40261739799846,1.45420944324994,-0.54968558846751
3.42263279445727,1.64511595111607,-0.557686689125577
3.44264819091609,1.41808404423154,-0.354129911152477
3.4626635873749,0.686255976680068,0.0885723388803739
3.48267898383372,0.474010249467221,0.409635291863792
3.50269438029253,0.437383556219311,0.611463011032496
3.52270977675135,0.269714428739921,0.430129011161579
3.54272517321016,0.793263848615111,0.262362284474583
3.56274056966898,0.630420169540902,0.481215271205295
3.58275596612779,0.685619529956458,0.518765608461974
3.6027713625866,0.352859284132433,0.649007882815819
3.62278675904542,0.179002716132861,0.88692626163747
3.64280215550423,-0.276449331452782,0.800164014586972
3.66281755196305,-1.24961384846646,0.673297336915744
3.68283294842186,-1.3168896958279,0.749567864054336
3.70284834488068,-1.15878341255153,0.810399311862016
3.72286374133949,-1.12223912586636,0.892726764062358
3.74287913779831,-0.389612732281447,1.05912005265192
3.76289453425712,-0.240554528479458,1.125789602889
3.78290993071594,-0.358831621897523,1.2434801860628
3.80292532717475,-0.190425752216883,1.06144772852341
3.82294072363356,-0.878658584430114,0.482749220483788
3.84295612009238,-1.21700473856485,0.00229492756066434
3.86297151655119,-1.36218369271799,-0.333707568252159
3.88298691301001,-1.02611140790917,-0.522453190252361
3.90300230946882,-0.930186038808082,-0.349441935726056
3.92301770592764,-1.07504976430531,-0.0009054715704645
3.94303310238645,-1.21849147797614,0.171121500126002
3.96304849884527,-1.00883078230006,0.400115936197762
3.98306389530408,1.20477885237812,0.587597562543311
4.00307929176289,1.48578614836475,0.817822320791719
4.02309468822171,1.12849828224666,0.856784581663282
4.04311008468052,0.436989484366806,0.512205231721857
4.06312548113934,-0.814296687832965,0.544638652178772
4.08314087759815,-1.05346780332517,0.551809622979383
4.10315627405697,-0.915720198122969,0.682344719625139
4.12317167051578,-1.32129611823026,0.479029736650716
4.1431870669746,-0.866748284050392,0.0458793086820652
4.16320246343341,1.94788390106516,-0.322333208606804
4.18321785989222,2.28862727705158,-0.704795953045137
4.20323325635104,0.231340596870398,-0.791639260711087
4.22324865280985,-1.20514090775903,-0.721577667216555
4.24326404926867,-0.964810525325989,-0.378478282308114
4.26327944572748,-1.10405252573425,-0.35486158161892
4.2832948421863,-1.02397952663531,-0.484035488346239
4.30331023864511,-1.31257833906549,-0.42182161951225
4.32332563510393,-0.703428166308128,-0.403134685313747
4.34334103156274,1.48999260034797,-0.632812266976261
4.36335642802155,1.10647189517132,-0.931676255390333
4.38337182448037,0.796477726093119,-0.885544282661877
4.40338722093918,1.16490445361425,-0.87783433751378
4.423402617398,1.63642354887887,-0.678144691503219
4.44341801385681,0.803627630383338,-0.373998636061215
4.46343341031563,1.19973165190555,-0.50270035263731
4.48344880677444,1.49541154840686,-0.412807560492474
4.50346420323326,1.18849929219812,-0.137406230962659
4.52347959969207,0.725482240351184,0.323125932606765
4.54349499615089,1.07668854565049,0.421379261872384
4.5635103926097,0.734973293156499,0.329106823711949
4.58352578906851,0.901579732508794,0.438034512469179
4.60354118552733,0.193759613981629,0.183112420129813
4.62355658198614,-0.665684205001408,-0.0370219797130318
4.64357197844496,-0.638628908777349,-0.109363241234967
4.66358737490377,-1.46693078756188,-0.089917121747104
4.68360277136259,-0.609296317711522,0.203559612697229
4.7036181678214,1.03060905342177,0.121866354028192
4.72363356428022,0.251287213724646,0.0754558390963524
4.74364896073903,0.398904423012384,0.086340806630221
4.76366435719784,0.456618486812985,-0.0447295260678553
4.78367975365666,0.30903763206813,-0.130370520746886
4.80369515011547,0.218980136864434,-0.105549710300897
4.82371054657429,0.190073214584908,-0.0707389387740319
4.8437259430331,0.130933778324106,-0.06758618297069
4.86374133949192,-0.194005648152249,-0.0292763274290458
4.88375673595073,-0.138819354001043,0.0427749120818951
4.90377213240955,-0.197356633442164,0.0611032079115114
4.92378752886836,-0.301643849932714,0.225863357489535
4.94380292532717,-0.462634325355788,0.295936356703774
4.96381832178599,-1.05717980045244,0.0257343427148752
4.9838337182448,-0.759975407828118,-0.0079399243747675
5.00384911470362,-0.175421305676848,-0.217132103763786
5.02386451116243,-0.484928303451044,-0.380961000142924
5.04387990762125,-0.798104400579311,-0.516704349197507
5.06389530408006,-0.689626448280824,-0.493643083090223
5.08391070053888,-1.0135334647599,-0.235642736232886
5.10392609699769,1.14069531011236,0.194925077223119
5.12394149345651,1.10946172453436,0.350741259904716
5.14395688991532,-1.00601231746684,0.416573156772558
5.16397228637413,-0.91455569491297,0.387933099276435
5.18398768283295,-0.840067321653626,0.261361900442469
5.20400307929176,-0.4478137423003,0.179163800556907
5.22401847575058,-0.521404395560264,-0.0312029457098575
5.24403387220939,-0.908291662102399,-0.156319384901761
5.26404926866821,-0.754138211453668,-0.257825940755182
5.28406466512702,-1.16386678949139,-0.457579339404895
5.30408006158584,0.481310425070981,-0.507339307147258
5.32409545804465,2.3973652996229,-0.269369419112249
5.34411085450346,-0.110385055431085,-0.188551073138872
5.36412625096228,0.35255556298185,0.198146561297269
5.38414164742109,2.31209189185372,0.408729304462912
5.40415704387991,1.66866349226471,0.433364529160753
5.42417244033872,-0.842321736941906,0.00472025162825383
5.44418783679754,-0.764507438805527,-0.545846637522716
5.46420323325635,-1.07282083917988,-0.865544533843648
5.48421862971517,-0.289360769245513,-0.73816742346729
5.50423402617398,-0.0582785051738006,-0.435806704670437
5.52424942263279,-0.255207627954082,0.15641399376908
5.54426481909161,1.27505777480003,0.381390270093708
5.56428021555042,2.41740769609816,0.446264451060998
5.58429561200924,2.24998861413249,0.607855166221989
5.60431100846805,1.37779871520149,0.692726653398594
5.62432640492687,1.45024512952181,0.591026789785135
5.64434180138568,0.0733849224385196,0.267495527013905
5.6643571978445,-0.89946055712251,-0.103041916744606
5.68437259430331,-0.781971042366239,-0.397716912456789
5.70438799076212,-0.825231485900908,-0.512575594087843
5.72440338722094,-0.884353485946582,-0.254361545041207
5.74441878367975,-1.00505089269872,-0.224245222648929
5.76443418013857,-1.13949788323386,-0.334750750740331
5.78444957659738,-0.515867325524616,-0.142566259060334
5.8044649730562,1.51900995106645,-0.0836614966320741
5.82448036951501,1.13180671768528,-0.0312248500049651
5.84449576597383,0.0660150687411009,-0.195554999339445
5.86451116243264,-1.05668001760899,-0.526220676962347
5.88452655889146,-0.634237275886725,-0.717205748673468
5.90454195535027,-0.782735699756447,-0.654470482145478
5.92455735180908,-0.74348388790254,-0.0976840388196279
5.9445727482679,-1.09902472090992,0.50602091590028
5.96458814472671,-0.222645047911571,0.723904806955631
5.98460354118553,2.27632767473053,0.876298939467766
6.00461893764434,1.26032826908056,0.636643066396892
6.02463433410316,-0.382591817374192,0.397394106816923
6.04464973056197,-0.931922160846165,0.176956339623895
6.06466512702079,-0.94521311325309,0.163952282648138
6.0846805234796,-1.05694885797235,0.183119333920621
6.10469591993841,-1.02292755626272,0.09744873584416
6.12471131639723,-0.572972525585179,0.17689556195788
6.14472671285604,0.788570344994485,0.417603631310126
6.16474210931486,0.412716099054135,0.653635094418223
6.18475750577367,-0.536908250482626,0.728827267166157
6.20477290223249,-0.909854606951824,0.290174053214961
6.2247882986913,-0.759189523357847,0.0724740282193041
6.24480369515012,-0.886391854074051,0.0472646557861744
6.26481909160893,-0.763020542041653,-0.14918162253462
6.28483448806774,-1.1347628756947,0.125107525830274
6.30484988452656,0.604928517692264,0.264376312557989
6.32486528098537,1.49702056802881,0.248083650059601
6.34488067744419,1.03282312164329,0.234499488151209
6.364896073903,1.04779917357358,0.0944306844559586
6.38491147036182,0.693782593631814,-0.0830675350832479
6.40492686682063,-0.0161754288946844,0.136948961789445
6.42494226327945,0.0660654181807581,0.454848820033425
6.44495765973826,1.07880388405536,0.658635063512984
6.46497305619708,1.41636401098092,0.738526449658455
6.48498845265589,1.61002124067716,0.617140519884692
6.5050038491147,1.80477408426546,0.197611397515614
6.52501924557352,1.71944369745538,-0.436845553805628
6.54503464203233,-0.022538795704031,-0.812430808077809
6.56505003849115,-0.843426614111234,-1.17515512916401
6.58506543494996,-1.03542765398942,-0.812200541331679
6.60508083140878,-0.911703550172735,-0.520791761687737
6.62509622786759,-0.975861729283369,-0.191544818503179
6.6451116243264,0.143310814392728,0.280940797780628
6.66512702078522,1.738979071388,0.442887099022113
6.68514241724403,1.17512660454974,0.37152828562795
6.70515781370285,0.435528315037126,0.167309670704192
6.72517321016166,-0.314449610750822,0.0470962761328931
6.74518860662048,-0.33881840053234,-0.0592732290268325
6.76520400307929,-0.380210433464876,-0.148891496056239
6.78521939953811,0.274302755075319,-0.283916869286017
6.80523479599692,0.383196012846761,-0.503391749190406
6.82525019245574,-0.141944025985981,-0.438863631306235
6.84526558891455,0.310797492475641,-0.249248682199638
6.86528098537336,0.414950904617772,-0.115631174939209
6.88529638183218,-0.384641571053624,-0.0126884605898933
6.90531177829099,-0.865505818051335,0.0114558789458346
6.92532717474981,-0.970256155256947,-0.0818058746364907
6.94534257120862,-1.10602344028397,-0.466114753129361
6.96535796766744,-0.603517074947364,-0.600049515835262
6.98537336412625,-0.61910523291658,-0.198993327538239
7.00538876058507,1.8923785964985,-0.107070433366323
7.02540415704388,1.84424889167333,-0.124541261498606
7.04541955350269,0.0864746186705505,-0.219759253765907
7.06543494996151,-0.114572439495966,-0.244862662273352
7.08545034642032,-0.279636783489224,-0.0678751834666317
7.10546574287914,0.165076090412351,0.342942134801054
7.12548113933795,0.601908291366462,0.638536867062733
7.14549653579677,0.940086526998873,0.760757587172599
7.16551193225558,0.979805712876671,0.539145981265727
7.1855273287144,1.14015968639779,0.331760929037079
7.20554272517321,1.08660863164833,0.460901042179669
7.22555812163202,-0.333740349661053,0.439965254916782
7.24557351809084,-1.0292028368967,0.440585253323037
7.26558891454965,-0.959020239817788,0.260580340890765
7.28560431100847,-1.04576312000327,0.23158549879605
7.30561970746728,-0.938665405448185,0.17636567578015
7.3256351039261,-0.875439943117551,0.061943023074837
7.34565050038491,-0.763542311129967,0.167150434669246
7.36566589684373,-0.867206980601602,0.323020420877272
7.38568129330254,-0.847634117410709,0.209383641440236
7.40569668976135,0.382601629265117,0.263872372498455
7.42571208622017,0.552988221943078,0.0709703299807266
7.44572748267898,-0.110585252319904,-0.0233344478644009
7.4657428791378,-0.556679502341957,-0.27674354498194
7.48575827559661,-1.02627200808441,-0.425717888847816
7.50577367205543,-0.582667230160457,-0.513930015360549
7.52578906851424,-0.839056223939741,-0.644138422239173
7.54580446497306,-0.764447695645782,-0.410576150809917
7.56581986143187,-0.807174053884602,-0.465887787995653
7.58583525789069,-0.780351680953726,-0.653115070354646
7.6058506543495,-0.796657310374487,-0.967870240055305
7.62586605080831,-0.785373450133768,-1.32926009082182
7.64588144726713,-0.792681884900771,-1.27726116630074
7.66589684372594,-0.787528779986271,-0.972886966096895
7.68591224018476,-0.789126119772501,-0.778027017529952
7.70592763664357,-0.786804303059706,-0.658108924008538
7.72594303310239,-0.784316252012059,-0.488011077415735
7.7459584295612,-0.786103151953325,-0.312663669230757
7.76597382602002,-0.784080385368919,-0.581039538168625
7.78598922247883,-0.783718709600006,-0.548574702313575
7.80600461893764,-0.77551159540475,-0.475923656990638
7.82602001539646,-0.777702931688661,-0.599669228493986
7.84603541185527,-0.777868112213059,-0.580071691497858
7.86605080831409,-0.775204973798376,-0.647825837326582
7.8860662047729,-0.780271812578053,-0.400814092222455
7.90608160123172,-0.77785952628692,-0.382305320246377
7.92609699769053,-0.766867616390004,-0.511308458572185
7.94611239414935,-0.770039808374441,-0.543184935825713
7.96612779060816,-0.767389026012004,-0.408909035532516
7.98614318706697,-0.768793133369749,-0.229203903873758
8.00615858352579,-0.780149861681695,-0.37668670365055
8.0261739799846,-0.782557612332205,-0.591878718203308
8.04618937644342,-0.765661017050028,-0.466532349548383
8.06620477290223,-0.771381094331506,-0.49885457284097
8.08622016936105,-0.774738771820532,-0.389774336323864
8.10623556581986,-0.778268557238829,-0.469976407698238
8.12625096227868,-0.777947136048228,-0.474015485214228
8.14626635873749,-0.778816781837593,-0.595139190954507
8.16628175519631,-0.78119570280405,-0.686497317842759
8.18629715165512,-0.779274169822319,-0.743915838476761
8.20631254811393,-0.776478701701422,-0.971733857938682
8.22632794457275,-0.78313374607218,-0.790025566665584
8.24634334103156,-0.779320258242535,-0.537719689951361
8.26635873749038,-0.793774521969335,-0.415607194004953
8.28637413394919,-0.773030614532759,-0.505221308527471
8.30638953040801,-0.810456421134868,-0.659571772217035
8.32640492686682,-0.765778083058329,-0.494958394119094
8.34642032332563,-0.833669320758433,-0.141039343769521
8.36643571978445,-0.737431938437628,0.241830794964164
8.38645111624326,-0.920057383203026,0.708337142827668
8.40646651270208,0.58864060690981,1.01504898922285
8.42648190916089,1.76738534804287,1.17884054870568
8.44649730561971,1.672844613182,0.881598323511575
8.46651270207852,1.9599397970125,0.630978732288397
8.48652809853734,2.25311914401662,0.402804529535384
8.50654349499615,1.74350898127326,0.289166268814633
8.52655889145496,1.08681130120439,0.243318903680933
8.54657428791378,0.596167714297439,0.32287162043561
8.56658968437259,0.00859829290434501,0.465461104080936
8.58660508083141,0.157485862485906,0.436867680425043
8.60662047729022,0.21939342525246,0.360292854430379
8.62663587374904,0.0863092542459088,0.389153616954125
8.64665127020785,-0.572628148323587,0.264997515485053
8.66666666666667,-0.733451466894235,0.0602575635713177
8.68668206312548,-0.793537343709132,0.164115809062461
8.7066974595843,-0.737187180694409,0.377403261377787
8.72671285604311,-0.85811604603651,0.699485690328028
8.74672825250192,-0.232338924608412,1.01292612433282
8.76674364896074,1.37958377382015,1.19668719170574
8.78675904541955,1.63392228675339,1.20826125315123
8.80677444187837,1.85959390898274,1.04185265715189
8.82678983833718,2.02477200009278,0.783458440828523
8.846805234796,0.923927788582867,0.600331168506289
8.86682063125481,0.452013621457929,0.66312737582025
8.88683602771363,1.08791834882027,0.601947219494145
8.90685142417244,2.00374534578667,0.660646553248553
8.92686682063125,2.59149033782979,0.565999268994801
8.94688221709007,1.91739498217818,0.32531531307541
8.96689761354888,0.6449510586123,0.291491506888646
8.9869130100077,2.12849187878266,0.260457693426318
9.00692840646651,2.78234354245599,0.396727011476312
9.02694380292533,2.19569691259551,0.280430767250665
9.04695919938414,1.27485301700531,0.156701943944003
9.06697459584296,0.142136236964293,-0.0502341249575788
9.08698999230177,-0.630070170122697,-0.365951733431033
9.10700538876059,-0.628849378715689,-0.715079441732867
9.1270207852194,-0.599399502578183,-0.875323075093457
9.14703618167821,-0.872554914859157,-0.663469130733036
9.16705157813703,-0.162854661431616,-0.0699522064395522
9.18706697459584,2.56870851935496,0.338275398092874
9.20708237105466,2.39270152854799,0.431452984327843
9.22709776751347,0.982222871006302,0.2184708146711
9.24711316397229,-0.12712480721455,-0.229142203563686
9.2671285604311,-0.429758384287473,-0.35436175147502
9.28714395688992,-0.559593412196322,-0.394819671745339
9.30715935334873,-0.571478794872272,-0.340570739054751
9.32717474980754,-0.695273382946767,-0.280061043491471
9.34719014626636,-0.604967491680257,-0.0865918310363192
9.36720554272517,-0.710633013092213,0.20953911632093
9.38722093918399,0.465231542957158,0.527667736636389
9.4072363356428,0.913143345777088,0.541874356617823
9.42725173210162,0.780733283808575,0.51035691142747
9.44726712856043,0.666858852583191,0.144274995043709
9.46728252501924,0.297848075000027,-0.150346732731663
9.48729792147806,0.529440798880868,-0.0282771440939939
9.50731331793687,0.354610745244283,0.0911713761920478
9.52732871439569,-0.19882639874734,0.381526965794233
9.5473441108545,-0.135749844501062,0.331976930552147
9.56735950731332,-0.186962598512698,0.33385610231602
9.58737490377213,-0.229251437447468,0.219413358131142
9.60739030023095,-0.169680326607967,-0.0955564647592146
9.62740569668976,-0.437241980951826,-0.245454003233284
9.64742109314858,-0.734029780919017,-0.0986990258393707
9.66743648960739,0.0340955970999375,-0.00410929600313395
9.6874518860662,0.824220821259121,0.201859537599872
9.70746728252502,0.734555951384438,0.270412032026752
9.72748267898383,0.818608172012362,0.356388247321385
9.74749807544265,0.00962427033134683,0.202796269502052
9.76751347190146,-0.513117980023358,-0.0554708044588911
9.78752886836028,-0.428407406609407,0.00597600212742145
9.80754426481909,-0.286071040808033,0.22440234795511
9.82755966127791,-0.239614419447386,0.472290946725341
9.84757505773672,-0.289328449996725,0.586515684932913
9.86759045419553,-0.657938234563086,0.45151856248734
9.88760585065435,-0.771062567272811,0.429060653941704
9.90762124711316,-0.25694823467579,0.331310863642282
9.92763664357198,0.810493729737633,0.267455202021715
9.94765204003079,0.733106977409498,0.112850717700827
9.96766743648961,0.286747262212547,0.222742774841099
9.98768283294842,-0.201226538868599,0.293560318542179
10.0076982294072,-0.337356058400488,0.157455589298792
10.0277136258661,-0.571018180902648,-0.0768113818131742
10.0477290223249,-0.591699777043111,-0.148347296004131
10.0677444187837,-0.620883841520214,-0.316097855618398
10.0877598152425,-0.578316446936503,-0.594148552185747
10.1077752117013,-0.62222397324786,-0.718037752476205
10.1277906081601,-0.54975484926995,-0.405678679707661
10.1478060046189,1.00993097189755,-0.163043060874762
10.1678214010778,1.17370996442183,-0.120819585717572
10.1878367975366,1.06850445385537,0.103072428874054
10.2078521939954,1.03676768055672,0.269441581858387
10.2278675904542,0.921205189482516,0.446859748470546
10.247882986913,0.952637563526806,0.618133311116972
10.2678983833718,1.0304131682849,0.659792582966362
10.2879137798306,0.941602781072891,0.578131796548808
10.3079291762895,0.286127568756819,0.259079317813442
10.3279445727483,-0.221727587747885,0.0702221437215096
10.3479599692071,-0.646674861440365,0.222054209158619
10.3679753656659,-0.658092579702701,0.234241468695563
10.3879907621247,-0.775343931040079,0.490117958321274
10.4080061585835,-0.54081030478697,0.727173495227057
10.4280215550423,0.610344404118099,0.779057179555559
10.4480369515012,0.454919532695892,0.674417975105976
10.46805234796,0.206625527249053,0.229600040009905
10.4880677444188,0.340287702478798,-0.172480333357282
10.5080831408776,0.554700496938807,-0.405096083362711
10.5280985373364,0.272587868661217,-0.412577952019472
10.5481139337952,0.386878398295047,-0.396392826309736
10.568129330254,0.686844772035771,-0.285803916283526
10.5881447267129,0.569915574498581,-0.252266129740529
10.6081601231717,-0.269746079802687,-0.148463293641092
10.6281755196305,-0.629954838727934,0.200594864469286
10.6481909160893,-0.314028440685673,0.344698630811452
10.6682063125481,0.854919732745135,0.480002698019343
10.6882217090069,1.0759317726635,0.369886184557858
10.7082371054657,1.13900128007227,0.380404574180556
10.7282525019246,1.02971581831902,0.548760947320019
10.7482678983834,0.413412824385587,0.592817244127347
10.7682832948422,0.123424277289313,0.482553939000313
10.788298691301,0.0713108105076635,0.164338962718356
10.8083140877598,-0.431559389305538,0.246639108695018
10.8283294842186,-0.556743120166731,0.255572232020875
10.8483448806774,-0.580180184914738,0.124458334472232
10.8683602771363,-0.729313775149076,0.122914760656326
10.8883756735951,-0.757230052769925,-0.114998370648237
10.9083910700539,-0.627923607927711,-0.308272440112437
10.9284064665127,-0.737759070478127,-0.314062784216638
10.9484218629715,-0.250841801689987,-0.280812044627531
10.9684372594303,0.360370544259512,-0.0699837452440785
10.9884526558891,0.0977937633354342,-0.0135852273783627
11.008468052348,-0.319763569863812,0.049372916573443
11.0284834488068,0.384760024138173,0.19695679332275
11.0484988452656,0.506787097227643,0.207526128465134
11.0685142417244,0.0665779941337411,0.132044599348341
11.0885296381832,-0.237100520220985,0.00855222892561101
11.108545034642,-0.222093541144759,-0.240916045300061
11.1285604311008,0.183944979316337,-0.574987858961594
11.1485758275597,0.137909132423642,-0.900213355001374
11.1685912240185,0.0942638412818581,-0.82463868979568
11.1886066204773,0.201556318447155,-0.742731678796817
11.2086220169361,0.275599432790812,-0.657082745958811
11.2286374133949,-0.140769317989404,-0.222906582942786
11.2486528098537,-0.489358149471442,0.262119442158123
11.2686682063125,-0.621329235215792,0.833616936872302
11.2886836027714,0.0165757348780592,0.980202290865886
11.3086989992302,0.83058616623808,1.06499990090394
11.328714395689,0.692337098540559,1.02755042940771
11.3487297921478,0.567952795217204,0.9513650194152
11.3687451886066,0.0288496002065171,0.538484992889343
11.3887605850654,-0.416686781465988,-0.0504119011764701
11.4087759815242,-0.666569315454486,-0.391599412288271
11.4287913779831,-0.724842297247037,-0.424057254695885
11.4488067744419,-0.734908027569729,-0.0257914705712106
11.4688221709007,-0.744527525245873,0.142352234610178
11.4888375673595,-0.745544926878861,0.261494431873248
11.5088529638183,-0.745733209089153,0.286260682652887
11.5288683602771,-0.751731072038712,0.00661482306941275
11.548883756736,-0.730954006193418,-0.100955316146341
11.5688991531948,-0.713591322397178,-0.0963121731057749
11.5889145496536,-0.749337816477344,-0.0351381000185935
11.6089299461124,-0.745382957617283,0.101638940813354
11.6289453425712,-0.750472508035321,-0.0573873341313793
11.64896073903,-0.74704236370757,-0.23909062505694
11.6689761354888,-0.749211235921696,-0.393755320839565
11.6889915319477,-0.746284489365953,-0.656928959135158
11.7090069284065,-0.744388764581505,-0.664734368685261
11.7290223248653,-0.746908199925081,-0.704957078750557
11.7490377213241,-0.745521140338095,-0.650423215379708
11.7690531177829,-0.745954547743189,-0.409652849114079
11.7890685142417,-0.746689626021483,-0.198395620837895
11.8090839107005,-0.744573887990229,-0.540654319506413
11.8290993071594,-0.742923293841829,-0.870065164837072
11.8491147036182,-0.739321714880674,-1.07861676812374
11.869130100077,-0.736568120280558,-1.24868672079369
11.8891454965358,-0.736411537215251,-1.258521151944
11.9091608929946,-0.737854614462879,-1.09545584418468
11.9291762894534,-0.735240871701082,-0.812862123710456
11.9491916859122,-0.734131668050379,-0.562206976432633
11.9692070823711,-0.735800105385159,-0.282718455161719
11.9892224788299,-0.733321289130243,-0.180313083106129
12.0092378752887,-0.734447711324693,-0.27563946836622
12.0292532717475,-0.743435363461176,-0.701127742226607
12.0492686682063,-0.738210286617506,-0.858709653564171
12.0692840646651,-0.755322985627036,-0.98149673956559
12.0892994611239,-0.733731830118867,-0.969861912915124
12.1093148575828,-0.779479969734962,-0.755438862736655
12.1293302540416,-0.697637708632145,-0.682021822840154
12.1493456505004,-0.79415129648483,-0.434399051924914
12.1693610469592,-0.578662980660065,0.323588997534819
12.189376443418,-0.9292541814173,1.02957287919674
12.2093918398768,0.282370035166853,1.70995592634673
12.2294072363356,0.698244565156256,1.79432134023473
12.2494226327945,2.55236340047673,1.16070441653115
12.2694380292533,3.72423086158503,0.663699631446062
12.2894534257121,4.10710967423773,0.509461638810946
12.3094688221709,3.65102587054351,0.539190398597907
12.3294842186297,2.74501849391136,0.610169851472454
12.3494996150885,2.15549629540478,0.556707151835518
12.3695150115473,2.18252295689705,0.442594387558422
12.3895304080062,2.39468791262365,0.486355282806542
12.409545804465,0.983989559628707,0.421886707796289
12.4295612009238,-0.586421420963252,0.186465364934721
12.4495765973826,-0.537438124628596,-0.100049711601262
12.4695919938414,-0.631665285738923,-0.0877657111658675
12.4896073903002,-0.69675881364988,0.138616812871901
12.509622786759,-0.593597209065686,0.192692156178722
12.5296381832179,1.53596303113238,0.308855554035062
12.5496535796767,2.30377628298411,0.256787339878561
12.5696689761355,1.98336045326182,0.253914058345594
12.5896843725943,1.44410589980718,0.325560240011696
12.6096997690531,1.17954316526864,0.406294244593085
12.6297151655119,1.0327923534836,0.582074230862898
12.6497305619707,1.07043388795091,0.461591407687035
12.6697459584296,0.662975188897426,0.157469328150983
12.6897613548884,-0.370287478396524,-0.139957509131401
12.7097767513472,-0.612506514080222,-0.536509901153121
12.729792147806,-0.510563341302818,-0.618195463545349
12.7498075442648,0.245893325140811,-0.481036571937453
12.7698229407236,0.0911562497154409,-0.177438927636531
12.7898383371824,-0.214350813852592,0.34376620334847
12.8098537336413,-0.5401363380602,0.633695114530035
12.8298691301001,-0.891049911407375,0.65204528427824
12.8498845265589,-0.9224740651078,0.668028208986259
12.8698999230177,1.26231296478874,0.408879295809238
12.8899153194765,2.99549398241228,0.115715125424735
12.9099307159353,3.23364816571576,-0.0509449056515709
12.9299461123942,2.95796914059167,-0.232083445088691
12.949961508853,1.75781678538212,-0.271954805643124
12.9699769053118,1.27269439822873,-0.0754562757122775
12.9899923017706,1.20917957541828,0.259455661617626
13.0100076982294,1.33485490832003,0.365797417161166
13.0300230946882,-0.174845418730135,0.301910090073029
13.050038491147,-0.969387934680193,0.0184644711246144
13.0700538876058,-0.874262507150514,-0.192976236876555
13.0900692840647,-0.841482160351426,-0.194310725092314
13.1100846805235,-0.612851516378606,-0.291210415375978
13.1301000769823,-0.713003107316915,-0.567955898687256
13.1501154734411,-0.59570875529652,-0.762147996149259
13.1701308698999,-0.986320537341507,-0.743467729280661
13.1901462663587,0.215675902405022,-0.60927869926248
13.2101616628176,1.31215319033235,-0.254381841965618
13.2301770592764,0.943587444484645,0.116257703106924
13.2501924557352,0.969978205951212,0.269484757365381
13.270207852194,0.562567804695616,0.169460026507935
13.2902232486528,0.0638561614420114,-0.00329370172064424
13.3102386451116,-0.750257708536653,-0.170717490895921
13.3302540415704,-0.843446441633299,-0.39605452020912
13.3502694380293,-0.835204644200347,-0.716869267765862
13.3702848344881,-1.09935882477084,-0.50683795753607
13.3903002309469,-0.526273916445026,0.0138843973943429
13.4103156274057,1.77616153186571,0.363831047892972
13.4303310238645,2.16939102402993,0.615598329945888
13.4503464203233,2.08168097150829,0.8023815811528
13.4703618167821,1.55368009969918,0.720435953273294
13.490377213241,1.05163806889439,0.437484201867288
13.5103926096998,0.974366752741602,0.087410452011606
13.5304080061586,0.871356454532001,-0.314032204403351
13.5504234026174,0.486520220883975,-0.403747967731433
13.5704387990762,-0.521994659645964,-0.496995955265975
13.590454195535,-0.736465579509173,-0.565901921908086
13.6104695919938,-0.636001227218996,-0.425750756671155
13.6304849884527,-0.752220762714905,-0.240923191148187
13.6505003849115,-0.624868218012691,-0.273157828077946
13.6705157813703,-1.04262892016541,-0.253551264356139
13.6905311778291,-0.296117858884273,-0.202117688908728
13.7105465742879,0.883164039895982,-0.0834059963813603
13.7305619707467,-0.314013484522394,-0.00579081864365974
13.7505773672055,-0.870072617173829,-0.13617632367273
13.7705927636644,-0.801001126399589,-0.260063326141975
13.7906081601232,-0.837709167497536,-0.733397368789478
13.810623556582,-0.709957718692355,-0.877585812293073
13.8306389530408,-0.842309601598403,-0.624242355360615
13.8506543494996,-0.878995845934319,-0.393582403283095
13.8706697459584,-0.965959832527345,-0.334282589303959
13.8906851424172,-0.315720866252795,-0.192412604426615
13.9107005388761,0.0760209779214106,0.0235781243880806
13.9307159353349,-0.119923311104349,-0.0292212245960307
13.9507313317937,-0.0435299743118951,-0.0452921688882112
13.9707467282525,-0.0500063528896853,0.0217679742379896
13.9907621247113,0.0352105728850051,0.144470663888651
14.0107775211701,-0.330098404052988,0.14141794123184
14.0307929176289,-0.766282719158298,0.142649519520598
14.0508083140878,-0.695376077180974,0.202835220646049
14.0708237105466,-0.691078422765405,0.0328065225911509
14.0908391070054,-0.779359331248846,-0.0614409338217272
14.1108545034642,-0.74825695773885,-0.258134004747335
14.130869899923,-1.1367634944176,-0.130959689376158
14.1508852963818,0.0913692904331178,0.0625265911302014
14.1709006928406,1.06141852530936,0.224377878797463
14.1909160892995,0.767251707199413,0.373184523887155
14.2109314857583,0.194589351670631,0.281253864393069
14.2309468822171,-1.01125493514664,0.227623132712831
14.2509622786759,-0.810211645149755,0.321681125470523
14.2709776751347,-1.06659126863267,0.544374021566245
14.2909930715935,-0.215536527713945,0.486609311575409
14.3110084680523,0.653072252649426,0.44424608126961
14.3310238645112,-0.685749341547281,0.158972769445514
14.35103926097,-0.857666955002441,-0.0998365266737211
14.3710546574288,-1.00678312453252,-0.190851517353134
14.3910700538876,-0.665882019687513,0.0391315518199815
14.4110854503464,0.783427508781111,0.724067808425313
14.4311008468052,0.859378187971015,1.08107075201061
14.451116243264,-0.258920622449854,0.943065456710314
14.4711316397229,-0.919796928376816,0.635800356967501
14.4911470361817,-0.91616525241197,0.47046299593474
14.5111624326405,-1.01105742482795,0.531680817560125
14.5311778290993,-0.868000105543394,0.54346522427092
14.5511932255581,-0.935721108281777,0.482365093012351
14.5712086220169,-1.00220945751352,-0.213272446169935
14.5912240184758,-0.855979755922883,-0.80322058043642
14.6112394149346,-1.03734196749985,-0.530760048844412
14.6312548113934,0.237856377850358,-0.342271342040626
14.6512702078522,0.543589715668282,-0.383103353776219
14.671285604311,0.269805319927454,-0.453083593955758
14.6913010007698,-0.173269926462409,-0.700936073597243
14.7113163972286,-0.726833187390503,-0.84205021434668
14.7313317936875,-0.523508878397222,-0.845924394779032
14.7513471901463,0.00216609994471903,-0.652513554769139
14.7713625866051,-0.13578565300254,-0.439649500817105
14.7913779830639,-0.0635108487570305,-0.285933455676708
14.8113933795227,0.016668693854508,-0.237209541922221
14.8314087759815,-0.270016033342375,-0.139505943074981
14.8514241724403,-0.703596394068652,-0.161964468903229
14.8714395688992,-0.999653348666771,0.0193635655841104
14.891454965358,-0.964498623503136,0.487161390765883
14.9114703618168,-1.00379320800653,0.939126025534682
14.9314857582756,-0.141106688143163,1.14765103793515
14.9515011547344,0.419037433427132,0.956962964913637
14.9715165511932,0.485472670468776,0.778276391872382
14.991531947652,0.82844058788157,0.631247910967735
15.0115473441109,1.8826782815063,0.414719438383213
15.0315627405697,0.679901211848139,-0.0643356498479681
15.0515781370285,-0.218179871176711,-0.319541263790866
15.0715935334873,0.18550324272422,-0.281612491166405
15.0916089299461,1.14362830721932,0.0500730982189416
15.1116243264049,2.29698421280112,0.226662069640287
15.1316397228637,1.88353698028797,0.247622555232209
15.1516551193226,1.70307450366769,0.354416413055886
15.1716705157814,0.404973857145772,0.523324479406611
15.1916859122402,-0.506259206491087,0.56047883982952
15.211701308699,-0.577450519040437,0.482203798068295
15.2317167051578,-0.00473935433187253,0.413834029014614
15.2517321016166,2.14450368574341,0.237429580544935
15.2717474980754,2.90586653479576,0.00110114930625036
15.2917628945343,2.56917659291337,-0.0705999586757685
15.3117782909931,1.81085939974319,-0.258685201621381
15.3317936874519,1.10502530030776,-0.542308063047548
15.3518090839107,0.168548697612866,-0.476663350993405
15.3718244803695,-0.363978208552183,-0.212480785595174
15.3918398768283,-0.648223858381595,0.0935776978273058
15.4118552732871,-0.719956360853528,0.313642602654231
15.431870669746,-0.751077111110218,0.364405310449072
15.4518860662048,-0.751028721252075,0.339953608436577
15.4719014626636,-0.757603338476314,0.344790422050321
15.4919168591224,-0.758357102643883,-0.0178633656986118
15.5119322555812,-0.575712794796548,-0.387734871283253
15.53194765204,-0.386987021307917,-0.569158203609189
15.5519630484988,1.18649950320034,-0.590652659750642
15.5719784449577,0.495767441320738,-0.216034230458305
15.5919938414165,0.825287989950491,0.158775787246703
15.6120092378753,1.21186629284653,0.264497665911764
15.6320246343341,0.881303954087086,0.111531431324641
15.6520400307929,0.884996011170211,-0.24185010533445
15.6720554272517,0.610709704668786,-0.251958724509662
15.6920708237105,0.363157372081739,0.0488112831052211
15.7120862201694,0.196283041354273,0.142534656369533
15.7321016166282,-0.296026701121553,0.260667683595294
15.752117013087,-0.35058718313241,0.23624389374559
15.7721324095458,-0.434252764726665,0.187016416714589
15.7921478060046,-0.226163098576747,0.293844032122728
15.8121632024634,-0.173061067369769,0.400915735190623
15.8321785989222,-0.535753978285493,0.171165300420407
15.8521939953811,-0.607413543014337,-0.0554095227812701
15.8722093918399,-0.591688016112044,-0.168161929739742
15.8922247882987,-0.749900489072282,-0.154505562195096
15.9122401847575,-0.422073659056181,-0.228427286215213
15.9322555812163,1.5584088986357,-0.267883895089667
15.9522709776751,1.33705798711363,-0.210355758501148
15.9722863741339,0.549837372158034,-0.230492345352735
15.9923017705928,0.694964770466054,-0.194276430653061
16.0123171670516,1.96159629316935,-0.0167657137958696
16.0323325635104,1.6731153111472,-0.00773446613596541
16.0523479599692,0.886889314938082,-0.148532695035081
16.072363356428,-0.288699933602271,-0.197840216577135
16.0923787528868,-0.401035176694178,-0.289623251794805
16.1123941493457,-0.612327467237226,-0.360325351630436
16.1324095458045,0.862803296445023,-0.313713033455761
16.1524249422633,1.38398579527773,-0.144981868073106
16.1724403387221,1.26823680738593,-0.173870549370856
16.1924557351809,1.44846658494095,-0.197752159216616
16.2124711316397,1.07459035536618,-0.214192809851288
16.2324865280985,0.753621870865063,-0.087571839421573
16.2525019245574,0.906124895840113,0.000868851082257691
16.2725173210162,0.698158004148086,-0.242818607731545
16.292532717475,0.0574684375404983,-0.535780316528264
16.3125481139338,-0.41305281198047,-0.758363776296451
16.3325635103926,-0.76542555437257,-0.715322895344749
16.3525789068514,-0.527401438611561,-0.49610962551534
16.3725943033102,-0.520417494811168,-0.573330905825749
16.3926096997691,-0.749633795526666,-0.502482313293295
16.4126250962279,-0.75316994160117,-0.67842621991321
16.4326404926867,-0.774179526180049,-0.814798285040673
16.4526558891455,-0.766310354666549,-0.886985119517739
16.4726712856043,-0.77742882557677,-0.775347067696616
16.4926866820631,-0.770755399802694,-0.381059882119529
16.5127020785219,-0.77175618157098,-0.305291064239414
16.5327174749808,-0.766596442107152,-0.374849419575009
16.5527328714396,-0.749747635097163,-0.258534962986212
16.5727482678984,-0.770997598228529,-0.346228993270477
16.5927636643572,-0.771056386916619,-0.643710970037388
16.612779060816,-0.7726923381075,-0.70735610771344
16.6327944572748,-0.77232159874454,-0.850625057337656
16.6528098537336,-0.770466929540337,-0.681016684661054
16.6728252501925,-0.769144702353437,-0.227162041550131
16.6928406466513,-0.769246882658951,0.228668517531305
16.7128560431101,-0.76829430525725,0.729686114351185
16.7328714395689,-0.76436741584541,0.999442988377219
16.7528868360277,-0.755636682649694,0.942218099415044
16.7729022324865,-0.738604830020439,0.836965279581565
16.7929176289453,-0.730841291208795,0.655122828257763
16.8129330254042,-0.729367075670049,0.362509193087828
16.832948421863,-0.728849851487625,0.117704863750665
16.8529638183218,-0.721976291349996,-0.101136933114952
16.8729792147806,-0.714734249306163,-0.14001847904731
16.8929946112394,-0.723158245125479,0.0423862920942736
16.9130100076982,-0.712087824306474,0.0430706563700469
16.933025404157,-0.719966015537479,-0.112643961314596
16.9530408006159,-0.730577121187072,0.0126267137198665
16.9730561970747,-0.731966977609984,0.0755108568074231
16.9930715935335,-0.732493665688979,-0.0393755996742615
17.0130869899923,-0.736066198270004,-0.125742397974807
17.0331023864511,-0.722361015788826,-0.128514741399614
17.0531177829099,-0.736572487705015,-0.0726773917306509
17.0731331793687,-0.73302189599595,0.185667116621986
17.0931485758276,-0.740227505255284,0.211305585004753
17.1131639722864,-0.752191246220753,0.105305339844638
17.1331793687452,-0.760045223744182,0.130740147325896
17.153194765204,-0.755596574977667,0.108922802006536
17.1732101616628,-0.788388842841874,0.348936427334505
17.1932255581216,-0.744454308813154,0.663155245408991
17.2132409545804,-0.813624501819446,0.76257109357715
17.2332563510393,-0.700296654059237,0.818213083832916
17.2532717474981,-0.790727618078009,0.721510504142588
17.2732871439569,1.04771659012176,0.563513079861471
17.2933025404157,0.791783184578131,0.336492578496545
17.3133179368745,-0.581147128266811,0.127166123029157
17.3333333333333,-0.591048324562385,-0.0206762677915135
17.3533487297921,-0.717778758371285,0.0793422814682521
17.373364126251,-0.66779588291686,-0.0916495607649038
17.3933795227098,-0.867494462407184,-0.332004005278858
17.4133949191686,-0.483922761713167,-0.389130523512377
17.4334103156274,-0.23592274545043,-0.444841604570346
17.4534257120862,0.0622213634083078,-0.416825368887879
17.473441108545,1.94536982685821,0.0927650993347175
17.4934565050038,3.62939528497773,0.352001038319891
17.5134719014627,0.49843161408516,0.2290130056825
17.5334872979215,0.959597099911785,-0.0286099614659855
17.5535026943803,0.740744829196423,-0.0954996675352035
17.5735180908391,-0.180611115367753,-0.402142447516819
17.5935334872979,-0.85976408670628,-0.676827164580621
17.6135488837567,-0.887473061250451,-0.714120366240695
17.6335642802156,-0.772247887872731,-0.745056639633779
17.6535796766744,-0.624902511163303,-0.583549258678657
17.6735950731332,-0.704429157821921,-0.621554833166635
17.693610469592,-0.775408046538304,-0.543818952120159
17.7136258660508,-0.932309411269927,-0.443240810456171
17.7336412625096,-0.967874725627552,-0.479198173877176
17.7536566589684,-0.986740166033457,-0.528014559774178
17.7736720554273,-0.97007008185979,-0.496014707663299
17.7936874518861,-0.960168983206271,-0.27837926820829
17.8137028483449,-0.960667954562773,-0.346141972364125
17.8337182448037,-0.930782134835356,-0.221136261577038
17.8537336412625,-0.945586687119661,-0.251828185978828
17.8737490377213,-0.940686338149376,-0.617813793872451
17.8937644341801,-0.932090721685875,-0.844219026534089
17.913779830639,-0.950419831722341,-0.985102817644375
17.9337952270978,-0.95117725776363,-1.07884131669697
17.9538106235566,-0.948617428480477,-1.28390214707163
17.9738260200154,-0.954994106473264,-1.40757016675103
17.9938414164742,-0.961611578410698,-1.39138871374301
18.013856812933,-0.957090882893952,-1.54043913491236
18.0338722093918,-0.98540674286121,-1.44960323909055
18.0538876058507,-0.971650502247954,-1.40914296233413
18.0739030023095,-1.01825091832759,-1.37112734886828
18.0939183987683,-0.940965751722348,-1.03729728194398
18.1139337952271,-1.07683247025059,-0.538992083874475
18.1339491916859,-0.581926106728098,-0.182766074039155
18.1539645881447,0.667756166419118,-0.181713862046526
18.1739799846035,1.37833119904176,-0.19556105806593
18.1939953810624,1.19708092264889,-0.145875933444298
18.2140107775212,0.831437185778056,-0.0136646253707915
18.23402617398,1.22814720446038,0.149575675598482
18.2540415704388,1.01520066433194,0.397537438581346
18.2740569668976,1.43690303462548,0.502683630287827
18.2940723633564,1.90019836783521,0.552771207236617
18.3140877598152,1.51373467433875,0.593754999644099
18.3341031562741,2.02631460648291,0.682891050374829
18.3541185527329,0.530437808155398,0.604877106027631
18.3741339491917,-0.942576448711014,0.499233926029928
18.3941493456505,-0.760221772108779,0.280948044692105
18.4141647421093,-0.978679021144258,-0.15805176378639
18.4341801385681,0.728957322757354,-0.170574687065699
18.4541955350269,2.32663809670858,0.0460154836793646
18.4742109314858,0.351255446294173,0.249480748655176
18.4942263279446,-0.311868063257253,0.730069876861012
18.5142417244034,0.536747826268275,1.15248897915219
18.5342571208622,0.898863113913924,1.27682240956649
18.554272517321,-0.200154851787352,1.2116246740924
18.5742879137798,-0.422613705306162,1.02236228718209
18.5943033102386,-0.477284774426651,0.304387716047274
18.6143187066975,-0.534115264980402,-0.232794633188715
18.6343341031563,-0.740369860876433,-0.48642308042666
18.6543494996151,-0.734671142850094,-0.487241881587137
18.6743648960739,-0.703614229759034,-0.043141941935862
18.6943802925327,-0.477260861897087,0.174242702160466
18.7143956889915,0.103552806016403,0.506430691991371
18.7344110854503,0.850140385034994,0.6775918221652
18.7544264819092,1.58599797425008,0.441209058929661
18.774441878368,1.52638824044174,0.322844009325176
18.7944572748268,1.32047833765581,0.350131933753837
18.8144726712856,0.898314316110613,0.132133725939578
18.8344880677444,0.90499082353562,-0.293223507301659
18.8545034642032,0.573226619540832,-0.445491664711539
18.874518860662,0.606163882080185,-0.328801744217567
18.8945342571209,2.22687802567271,-0.0889962622324641
18.9145496535797,2.10745419076528,0.153774754083436
18.9345650500385,2.26230468162054,0.395188008688698
18.9545804464973,1.96316317342901,0.25273233650465
18.9745958429561,1.77895365681533,0.08101230556909
18.9946112394149,0.921011636847055,-0.19871392752105
19.0146266358737,-0.377586389586703,-0.374899605646267
19.0346420323326,-0.32551058888109,-0.278706687898812
19.0546574287914,-0.571931584084309,-0.289166017105981
19.0746728252502,-0.432121052772122,-0.304436917727868
19.094688221709,-0.942889761559138,-0.0569708163877186
19.1147036181678,0.100958924586184,0.156319145500326
19.1347190146266,0.918985935804065,0.435113792966822
19.1547344110854,0.304966418596144,0.931850973225584
19.1747498075443,0.686664008769725,0.965875173656851
19.1947652040031,-0.397178701194355,0.872605984514781
19.2147806004619,-0.707179262143178,0.688261885000276
19.2347959969207,-0.798931567011661,0.423972724327657
19.2548113933795,-0.83692310920819,0.403008356938826
19.2748267898383,-0.836572112734503,0.370035966758774
19.2948421862972,-0.73692358288503,0.451962112344514
19.314857582756,-0.659317151860545,0.338864652645851
19.3348729792148,1.00567451681018,0.295064022191994
19.3548883756736,1.82191113529896,0.256212089270595
19.3749037721324,1.0858510369782,-0.0423665350987157
19.3949191685912,-0.399554124639731,0.108978132997683
19.41493456505,-0.827844732475519,0.353222746002453
19.4349499615089,-0.898257832780878,0.315954543390137
19.4549653579677,-0.917065158558929,0.167369480660194
19.4749807544265,-0.830945589746333,0.16791015610692
19.4949961508853,-0.887855880067456,0.279129914539569
19.5150115473441,-0.880993626333277,0.500733475863746
19.5350269438029,-0.999924026582549,0.609712321270132
19.5550423402617,-0.902159829219024,0.705495708488285
19.5750577367206,-0.893683956691802,0.656704477708122
19.5950731331794,0.318717372206959,0.604929173525894
19.6150885296382,1.06272936061768,0.584979295359892
19.635103926097,0.283754609657492,0.416614120541875
19.6551193225558,-0.38107113826016,0.0877345463439266
19.6751347190146,-0.729245853447438,0.0913951370211722
19.6951501154734,-0.758884852603972,0.0494613381825495
19.7151655119323,-0.785146380756535,-0.0844766351407726
19.7351809083911,-0.675309488773826,0.159195487268942
19.7551963048499,0.790472919204703,0.613123656355672
19.7752117013087,1.21234465384988,0.623331978008444
19.7952270977675,1.29726911099975,0.351083151422324
19.8152424942263,1.32842202929691,0.0657759359834804
19.8352578906851,1.33661235038865,-0.223246812337381
19.855273287144,1.13717152365169,-0.0653859760847953
19.8752886836028,0.904073143687425,0.13407003178462
19.8953040800616,-0.384324290391456,0.245270309605459
19.9153194765204,-0.951173661538871,0.368822748881851
19.9353348729792,-0.686337152471614,0.427557359957313
19.955350269438,-0.560473565699322,0.277861608684646
19.9753656658968,-0.516668868880883,0.0869681504806885
19.9953810623557,-0.588203463576559,0.0568232572870749
20.0153964588145,-0.622941086457527,0.113188903986474
20.0354118552733,-1.14464101042359,0.09086763729331
20.0554272517321,-1.01380575170359,0.0682914207909197
20.0754426481909,-1.09115574654713,-0.345928532154932
20.0954580446497,-1.01969243755555,-0.327735922992984
20.1154734411085,-0.890887205493326,-0.411470204808005
20.1354888375674,-0.0713488714523259,-0.603376079516692
20.1555042340262,-0.553517591397327,-0.666636960028324
20.175519630485,-1.07415039522137,-0.671814155096311
20.1955350269438,-0.906270922434447,-0.341657161816079
20.2155504234026,-1.24372203683371,0.127878341946883
20.2355658198614,0.188299740872875,0.657155272905174
20.2555812163202,2.41813042656181,0.825817015550366
20.2755966127791,2.69189979038565,0.812266075035021
20.2956120092379,2.68481736876453,1.1161203823163
20.3156274056967,2.50025618995818,1.20944454426982
20.3356428021555,2.39469124377853,1.25208493135264
20.3556581986143,1.93573247826113,0.920908725001533
20.3756735950731,1.37340547814233,0.707222497856666
20.3956889915319,1.28260279095404,0.738998217566888
20.4157043879908,-0.0510882642543234,0.806922000575145
20.4357197844496,-0.475170388108263,0.780778098368472
20.4557351809084,0.88678346131646,0.783841347110907
20.4757505773672,1.42490405862959,0.696812761730473
20.495765973826,1.465968082552,0.807394766935541
20.5157813702848,-0.0259389519683102,0.730097632394198
20.5357967667436,-0.824120120505738,0.56152979033526
20.5558121632025,-0.655890266541877,0.615441062056008
20.5758275596613,-0.867548330612481,0.202307985550427
20.5958429561201,-0.828288742640921,-0.205068557344849
20.6158583525789,-1.05314779235025,-0.249627872385754
20.6358737490377,-0.835079497088634,0.107868827936064
20.6558891454965,-1.09038844923414,0.479816257763378
20.6759045419554,-0.0196720826581172,1.10366258346982
20.6959199384142,1.7076893807638,1.43833712776592
20.715935334873,0.135323883659355,1.35426958084986
20.7359507313318,0.108779204215655,0.814134440021251
20.7559661277906,0.25104090054957,0.16362787872572
20.7759815242494,0.449772672906274,0.0279901409059014
20.7959969207082,-0.13029077082485,0.249161465435168
20.8160123171671,-0.401054357020295,0.667000163928396
20.8360277136259,-0.264280363724373,0.836978575061083
20.8560431100847,-1.16396092796141,0.82403271211305
20.8760585065435,0.865699845184801,0.659941200195285
20.8960739030023,2.21753412117587,0.59315703712863
20.9160892994611,2.55493384274298,0.581745817907704
20.9361046959199,1.27344788714858,0.414948400394704
20.9561200923788,1.07845261446872,0.328749685676228
20.9761354888376,0.00375521833875846,0.201031726978619
20.9961508852964,-0.821943975982295,0.199583526681317
21.0161662817552,-0.73732917218461,0.169775278324684
21.036181678214,-0.841676845802494,0.0445809500320866
21.0561970746728,-1.01962179428674,0.18951464760679
21.0762124711316,-0.989815776316637,0.384620886402105
21.0962278675905,-0.660578517205163,0.54800705689262
21.1162432640493,-0.730503482973759,0.431591458390882
21.1362586605081,-0.239514565817027,0.333278003214896
21.1562740569669,-0.43033728613139,0.217894673057765
21.1762894534257,0.173061690426457,-0.132485896266476
21.1963048498845,0.0159806377612177,-0.333540684708139
21.2163202463433,-0.747681676794688,-0.406290352877276
21.2363356428022,-0.936066561376282,-0.396023465910755
21.256351039261,-0.861373857712488,-0.438052623196547
21.2763664357198,1.18326673864336,-0.275043373144763
21.2963818321786,0.831694605703933,-0.293266767982359
21.3163972286374,0.765231044931291,-0.417979650836513
21.3364126250962,-0.340419954735995,-0.640961231398336
21.356428021555,-0.895030290131887,-0.755557233166239
21.3764434180139,-1.0398451766843,-0.775161159769742
21.3964588144727,-0.847533540719676,-0.957482650372206
21.4164742109315,-1.09969258268798,-0.963642634768258
21.4364896073903,0.811436428477822,-0.882228321280455
21.4565050038491,1.23469389883509,-0.484389094603078
21.4765204003079,0.10552901064174,-0.19157869767416
21.4965357967667,0.942238743323764,0.122169194223692
21.5165511932256,0.590416737488626,0.246566765859441
21.5365665896844,0.574485497836868,0.249952030873402
21.5565819861432,0.207597517868051,0.158582093296628
21.576597382602,0.153902534137139,0.0660306950543464
21.5966127790608,0.247376915564518,-0.126460601702007
21.6166281755196,0.240474352560872,-0.391914845343246
21.6366435719784,0.135049803599726,-0.680500021668281
21.6566589684373,-0.413471684573642,-1.02163177006413
21.6766743648961,-0.953259081356191,-1.24249538898604
21.6966897613549,-1.00748666891805,-1.17143608447938
21.7167051578137,-1.03169338451525,-1.00449214570958
21.7367205542725,-0.590596456824792,-0.508430473109319
21.7567359507313,0.176950365897068,-0.233647825199048
21.7767513471901,0.277027451026264,-0.113741464602178
21.796766743649,0.282534615850302,-0.0445912734015992
21.8167821401078,0.244623332302049,-0.0856580173046626
21.8367975365666,0.255321690714545,-0.146295026366988
21.8568129330254,0.432582756815748,-0.45792839323964
21.8768283294842,-0.0348752521895314,-0.516040165750277
21.896843725943,-1.04576021273509,-0.23644236929
21.9168591224018,-0.0767365806367998,-0.173622119673048
21.9368745188607,0.813567248218388,0.0533324038281022
21.9568899153195,0.670953940553134,0.030454565207287
21.9769053117783,1.04657386762,-0.100799029853518
21.9969207082371,1.10853851468012,-0.128381246822373
22.0169361046959,0.993071033928275,-0.282925377883317
22.0369515011547,-0.096288878743364,-0.246156310552813
22.0569668976135,-0.923840554722027,-0.527946309999775
22.0769822940724,-0.910992592670876,-0.791509567002479
22.0969976905312,-0.961207534845361,-0.928016120250104
22.11701308699,-0.982553826513584,-0.908753025364147
22.1370284834488,-1.04187363841596,-0.434822006650009
22.1570438799076,-0.590140591725355,-0.208427538315759
22.1770592763664,0.768407732857385,-0.0950895777598009
22.1970746728252,0.938379770681788,-0.261233629616929
22.2170900692841,0.0781154532502306,-0.662644264851202
22.2371054657429,-0.676522287440457,-0.615193805893193
22.2571208622017,-0.603484356996905,-0.492200448746435
22.2771362586605,-0.600874376928649,-0.285503790594359
22.2971516551193,-0.571403722445483,-0.397510106405215
22.3171670515781,-0.858114822552779,-0.663844625439328
22.337182448037,-1.07912147081687,-0.635359098164708
22.3571978444958,-0.978325375938297,-0.597503192688638
22.3772132409546,-0.940515559993443,-0.442707141090356
22.3972286374134,0.425997358659604,-0.364186521155209
22.4172440338722,1.46718875171568,-0.575293091855889
22.437259430331,0.840036413441771,-0.564600553545449
22.4572748267898,-0.5324088105655,-0.381292764467832
22.4772902232487,-0.886042209937319,-0.0963271808995531
22.4973056197075,-0.981619785785473,0.159734029228047
22.5173210161663,-0.805725354729197,0.170918680232724
22.5373364126251,-1.29187910080127,0.276755426927815
22.5573518090839,-1.18979805994277,0.225180306221402
22.5773672055427,-1.18551985887587,0.44870587944117
22.5973826020015,1.1901702328729,0.934367654884775
22.6173979984604,2.29728071427555,1.21989735189853
22.6374133949192,2.38165807721331,1.22695816626956
22.657428791378,1.79312804212707,0.742541991471213
22.6774441878368,0.520708121030272,0.32856827722945
22.6974595842956,-0.269913024023247,-0.0173853511099295
22.7174749807544,-0.974251407320196,-0.260383883648799
22.7374903772132,1.63324173480065,-0.221871039441675
22.7575057736721,3.58297150011719,-0.0648823676329071
22.7775211701309,2.45561119447807,0.121643505457997
22.7975365665897,1.33259831588638,0.212335332172654
22.8175519630485,0.596449164628812,0.142177481557931
22.8375673595073,1.08508753778943,0.1087665384916
22.8575827559661,1.03607731591789,-0.0626419459375555
22.8775981524249,0.958635734143033,-0.328946763382907
22.8976135488838,0.445324519347243,-0.469476006511638
22.9176289453426,-0.747958628665027,-0.40565803335182
22.9376443418014,-1.09762919633855,-0.354901132174827
22.9576597382602,-1.02220053378463,-0.258738665363993
22.977675134719,-0.118866629032944,0.00733829362425273
22.9976905311778,-0.103971151483552,-0.0681782894172738
23.0177059276366,-0.717904413360219,-0.395445911986779
23.0377213240955,-0.947273122424228,-0.856860264868902
23.0577367205543,-0.399571207075908,-1.16929398331651
23.0777521170131,-0.715503422915441,-1.31428430746197
23.0977675134719,-1.12967408151083,-1.35400222491366
23.1177829099307,-1.1971595939524,-0.809444552927625
23.1377983063895,0.175648405084746,-0.253078706761877
23.1578137028483,1.12324766565002,-0.120211725164843
23.1778290993072,0.380618098561538,-0.00449800607970136
23.197844495766,0.434230688369294,-0.153410006553476
23.2178598922248,0.808105404080503,-0.16379495701708
23.2378752886836,0.445295615077003,-0.19347372496542
23.2578906851424,0.851316236605006,0.104946430692418
23.2779060816012,0.715663432385098,0.466284810592161
23.29792147806,-0.0798399896600434,0.454523560987343
23.3179368745189,-0.749552968727247,0.429167987375555
23.3379522709777,-0.949575381536551,0.180801180567457
23.3579676674365,-1.03783705904032,-0.232886229929428
23.3779830638953,-1.03563356554349,-0.564251935239804
23.3979984603541,-1.0584632145882,-0.576363204984007
23.4180138568129,0.951545986459768,-0.506452015869535
23.4380292532717,1.64795483920512,-0.246501950395688
23.4580446497306,0.649672953147643,-0.0368785879929385
23.4780600461894,0.344437807102325,0.250866917915941
23.4980754426482,0.508822057136583,0.489221323512065
23.518090839107,0.266642841547036,0.62942127310145
23.5381062355658,0.642236502387618,0.474893344297979
23.5581216320246,0.770069932061486,0.169177589615273
23.5781370284835,1.03142061193777,0.221408859763149
23.5981524249423,1.07926776821502,0.231482328707557
23.6181678214011,0.693296344373132,0.182486091797549
23.6381832178599,0.698286719069569,0.235883517247191
23.6581986143187,-0.135712565595435,0.0953556577052467
23.6782140107775,0.0333835668465537,-0.213103758907369
23.6982294072363,-0.871244511962595,-0.235661260457843
23.7182448036951,-1.10519721703044,-0.420239440270082
23.738260200154,-1.07730981204189,-0.389772464788511
23.7582755966128,-0.600429528630617,-0.260518026224324
23.7782909930716,-0.2381245798853,-0.213975812663215
23.7983063895304,-0.91763701042917,-0.144074271218645
23.8183217859892,-0.980196309701163,-0.143194371739206
23.838337182448,-0.881094486836901,-0.409847505224218
23.8583525789069,-0.908604684050281,-0.562047373196498
23.8783679753657,-1.14091780652281,-0.605802859910017
23.8983833718245,-0.386463748447068,-0.576716743371132
23.9183987682833,-0.610465975927357,-0.493172048265685
23.9384141647421,-0.67022176843872,-0.401857102826815
23.9584295612009,-1.07613212085121,-0.41169133667431
23.9784449576597,-1.27236369620432,-0.612150055920633
23.9984603541186,0.256383047180306,-0.566861555949332
24.0184757505774,-0.000390571049454784,-0.00906382767990351
24.0384911470362,0.577459126929731,0.629859750676765
24.058506543495,1.58411154686809,1.13282846523622
24.0785219399538,1.72154147645228,1.05464180788533
24.0985373364126,1.69143516169792,0.454119476135232
24.1185527328714,1.34573310536074,0.00779064777502911
24.1385681293303,1.55942780849091,-0.214697389777244
24.1585835257891,1.00857543671835,-0.0761480241064439
24.1785989222479,-0.516002788784361,0.000601473810836778
24.1986143187067,-0.78329862005532,0.077174070927651
24.2186297151655,-0.9441647829315,0.0326921503775842
24.2386451116243,-0.046719024230906,0.11196111744938
24.2586605080831,0.376949874734266,0.304269823380937
24.278675904542,0.46899389315383,0.427079556998497
24.2986913010008,0.242011353564184,0.400644381008749
24.3187066974596,-0.933477154015972,0.216919436982057
24.3387220939184,-1.06942240555205,0.0653948875992205
24.3587374903772,0.57149590053892,0.164782372698424
24.378752886836,1.73299162656323,-0.0663930401792885
24.3987682832948,0.46168914374165,0.04717660948651
24.4187836797537,0.122040665225263,0.432413848183054
24.4387990762125,-0.168873964682489,0.7425245145271
24.4588144726713,-0.15321089748979,0.775281406212362
24.4788298691301,0.236818401866192,0.733330037999638
24.4988452655889,-0.434221290993411,0.537303186077071
24.5188606620477,-1.1888641509083,0.285652772652959
24.5388760585065,-1.17392271761249,-0.0155222942586606
24.5588914549654,-1.07910789168228,0.0367539954437551
24.5789068514242,-1.21353918454042,0.154561818052561
24.598922247883,-0.643924393397891,0.497866860902252
24.6189376443418,0.537627389916594,0.594213415593614
24.6389530408006,-0.365053819420197,0.689326863336698
24.6589684372594,-0.757894032322642,0.713552403275067
24.6789838337182,-0.89759028004257,0.365900952484275
24.6989992301771,-1.13773652622677,-0.0483129738007418
24.7190146266359,-0.868516127218113,-0.448452061609411
24.7390300230947,-1.30794461148979,-0.415752080437514
24.7590454195535,-0.733144316468715,-0.136249336146389
24.7790608160123,0.0264552684549229,-0.0856842498504036
24.7990762124711,0.0963707911784522,-0.145584785089172
24.8190916089299,0.329043739045494,-0.445501230678686
24.8391070053888,0.399185770220424,-0.492571623100393
24.8591224018476,0.454493578584884,-0.32841801884363
24.8791377983064,0.299697566368261,-0.306237213148862
24.8991531947652,0.308919861897807,-0.211102435017848
24.919168591224,-0.172693883226707,-0.22915243341576
24.9391839876828,-0.725731781484728,-0.286290885318596
24.9591993841416,-1.00861632799915,-0.414621815146924
24.9792147806005,-0.9355515975215,-0.737483825991438
24.9992301770593,-1.01212728544837,-1.00170636447049
25.0192455735181,-0.726697169681321,-1.03092747075055
25.0392609699769,-0.994229379119662,-1.06746361307198
25.0592763664357,-0.922626940842343,-0.91513355276317
25.0792917628945,-0.801856434524155,-0.632983371081682
25.0993071593533,-0.78734863722473,-0.758187314561794
25.1193225558122,-0.614255897808258,-0.957756559706286
25.139337952271,-1.00383509096064,-0.794768931963738
25.1593533487298,0.431023195894606,-0.521225552010037
25.1793687451886,2.66039206414351,-0.193416154980823
25.1993841416474,2.00159218595004,0.0713338732920905
25.2193995381062,0.677505539667334,0.496529497006667
25.2394149345651,-0.80496305510509,0.851182997249207
25.2594303310239,-0.849156890616541,0.943306198366411
25.2794457274827,-0.889871320562753,0.882194469029134
25.2994611239415,-0.940466931107674,0.489502431856685
25.3194765204003,-0.565571125063165,0.122377647791884
25.3394919168591,-0.707437310275222,0.102126701407585
25.3595073133179,0.196098308646076,0.0340487968421046
25.3795227097768,0.0794715423048312,0.276213233408458
25.3995381062356,-0.29081755656509,0.619066441928235
25.4195535026944,0.224045057406552,0.714876891474451
25.4395688991532,0.679284537147989,0.919958843517033
25.459584295612,-0.261940014441567,0.925477139901164
25.4795996920708,-0.854385789759587,0.672371853428274
25.4996150885296,-0.919731273836335,0.145404083410168
25.5196304849885,-0.930532830213116,-0.000698893447519264
25.5396458814473,-0.976502971858729,-0.0426522569220194
25.5596612779061,-0.38203975270112,-0.130171111644588
25.5796766743649,-0.515026123500962,-0.172932778081664
25.5996920708237,-0.959720791973519,-0.0779423568563583
25.6197074672825,0.0638459381901593,0.019971835100218
25.6397228637413,1.25119233989933,0.279848470079718
25.6597382602002,1.36594888782008,0.443596756049927
25.679753656659,1.33195763334645,0.223379259968183
25.6997690531178,0.941207697808613,-0.0286986468922234
25.7197844495766,0.275597259048081,-0.435602928905749
25.7397998460354,-0.40473940170104,-0.580577772911419
25.7598152424942,0.164621008836318,-0.546391174731506
25.779830638953,0.657200960123643,-0.480263692497689
25.7998460354119,0.597598219159007,-0.368040627102714
25.8198614318707,0.907354973304467,-0.489583461837269
25.8398768283295,1.15477756119552,-0.445003261086418
25.8598922247883,1.04373584457217,-0.340340502468549
25.8799076212471,0.732386401250107,-0.289872743241797
25.8999230177059,0.0113742199171451,-0.140846313127476
25.9199384141647,-0.530259903514406,-0.0209102161810942
25.9399538106236,-0.829909033205987,-0.0209331409453034
25.9599692070824,-0.892947378795778,-0.189122663652873
25.9799846035412,-0.91728496047404,-0.306776318493196
26,-0.95356264309453,-0.253746345314703
